Chapter 10 Exploration | Text as Data
…
clusters <- lastfm_clust %>%
    cutree(k = 3) %>%
    as_tibble(rownames = "document")

clusters
#> # A tibble: 155 × 2
#>    document value
#>    <chr>    <int>
#>  1 text1        1
#>  2 text2        2
#>  3 text3        2
#>  4 text4        1
#>  5 text5        1
#>  6 text6        2
#>  7 text7        3
#>  8 text8        2
#>  9 text9        1
#> 10 text10       1
#> # … with 145 more rows
…
